%YAML 1.1
%TAG !u! tag:unity3d.com,2011:
--- !u!1045 &1
EditorBuildSettings:
  m_ObjectHideFlags: 0
  serializedVersion: 2
  m_Scenes:
  - enabled: 0
    path: 
    guid: 00000000000000000000000000000000
  - enabled: 1
    path: Assets/Scenes/MainMenu.unity
    guid: 2a01516f4bc094f4fafcb88d38250773
  - enabled: 1
    path: Assets/Scenes/SampleScene.unity
    guid: 5d6792ca421dea542947dbf8880e86fe
  - enabled: 1
    path: Assets/Scenes/Options.unity
    guid: ac5062f00270b80408fc72f79f6d5840
  m_configObjects: {}
